<?xml version="1.0" encoding="utf-8"?>
<!-- Generator: Adobe Illustrator 22.0.0, SVG Export Plug-In . SVG Version: 6.00 Build 0)  -->
<svg version="1.1" id="Layer_1" xmlns="http://www.w3.org/2000/svg" xmlns:xlink="http://www.w3.org/1999/xlink" x="0px" y="0px"
	 viewBox="0 0 178.3 27.7" style="enable-background:new 0 0 178.3 27.7;" xml:space="preserve">
<style type="text/css">
	.st0{fill:#6D6D6D;}
	.st1{fill:#00B4CE;}
</style>
<g>
	<path class="st0" d="M15,13.8h-2.4v7.8c0,0.4-0.1,0.8-0.3,1c-0.2,0.2-0.5,0.3-0.8,0.3c-0.3,0-0.6-0.1-0.8-0.3s-0.3-0.6-0.3-1v-7.8
		H8.1c-0.4,0-0.6-0.1-0.8-0.2C7.1,13.4,7,13.2,7,12.9c0-0.3,0.1-0.5,0.3-0.7S7.7,12,8.1,12H15c0.4,0,0.7,0.1,0.8,0.2
		c0.2,0.2,0.3,0.4,0.3,0.7s-0.1,0.5-0.3,0.6C15.7,13.7,15.4,13.8,15,13.8z"/>
	<path class="st0" d="M20,18.1h-0.8v3.5c0,0.5-0.1,0.8-0.3,1s-0.5,0.3-0.8,0.3c-0.3,0-0.6-0.1-0.8-0.3S17,22,17,21.6v-8.3
		c0-0.5,0.1-0.8,0.3-1c0.2-0.2,0.5-0.3,1-0.3h3.5c0.5,0,0.9,0,1.3,0.1c0.3,0,0.7,0.1,0.9,0.3c0.3,0.1,0.6,0.3,0.9,0.6
		c0.3,0.3,0.5,0.6,0.6,0.9c0.1,0.3,0.2,0.7,0.2,1.1c0,0.8-0.2,1.4-0.7,1.9c-0.5,0.5-1.1,0.8-2.1,1c0.4,0.2,0.8,0.5,1.1,0.9
		c0.4,0.4,0.7,0.8,0.9,1.3c0.3,0.5,0.5,0.9,0.6,1.2c0.2,0.4,0.2,0.6,0.2,0.8c0,0.1,0,0.3-0.1,0.4c-0.1,0.1-0.2,0.2-0.4,0.3
		c-0.2,0.1-0.3,0.1-0.5,0.1c-0.2,0-0.4-0.1-0.6-0.2c-0.2-0.1-0.3-0.3-0.4-0.4c-0.1-0.2-0.3-0.4-0.5-0.8l-0.9-1.5
		c-0.3-0.5-0.6-0.9-0.8-1.2c-0.2-0.3-0.5-0.5-0.8-0.6S20.4,18.1,20,18.1z M21.2,13.6h-2v3h1.9c0.5,0,1,0,1.3-0.1
		c0.4-0.1,0.6-0.2,0.8-0.5c0.2-0.2,0.3-0.5,0.3-0.9c0-0.3-0.1-0.6-0.2-0.8c-0.2-0.2-0.4-0.4-0.6-0.5C22.5,13.7,22,13.6,21.2,13.6z"
		/>
	<path class="st0" d="M27.1,18.3v-5.2c0-0.4,0.1-0.8,0.3-1c0.2-0.2,0.5-0.3,0.8-0.3c0.3,0,0.6,0.1,0.8,0.3c0.2,0.2,0.3,0.5,0.3,1
		v5.3c0,0.6,0.1,1.1,0.2,1.5c0.1,0.4,0.4,0.7,0.7,0.9c0.3,0.2,0.8,0.3,1.4,0.3c0.8,0,1.5-0.2,1.8-0.7s0.5-1.1,0.5-2.1v-5.3
		c0-0.4,0.1-0.8,0.3-1s0.5-0.3,0.8-0.3c0.3,0,0.6,0.1,0.8,0.3c0.2,0.2,0.3,0.5,0.3,1v5.2c0,0.8-0.1,1.5-0.2,2.1
		c-0.2,0.6-0.5,1.1-0.9,1.5c-0.4,0.4-0.8,0.6-1.4,0.8s-1.1,0.2-1.8,0.2c-0.8,0-1.5-0.1-2.1-0.3c-0.6-0.2-1.1-0.5-1.5-0.8
		c-0.4-0.4-0.7-0.9-0.8-1.4C27.2,19.8,27.1,19.1,27.1,18.3z"/>
	<path class="st0" d="M47.3,19.3c0,0.3-0.1,0.7-0.3,1.1c-0.2,0.4-0.4,0.8-0.8,1.2c-0.4,0.4-0.8,0.7-1.4,0.9c-0.6,0.2-1.2,0.4-2,0.4
		c-0.6,0-1.1-0.1-1.5-0.2c-0.5-0.1-0.9-0.3-1.3-0.5c-0.4-0.2-0.7-0.5-1-0.9c-0.3-0.3-0.5-0.7-0.7-1.1c-0.2-0.4-0.4-0.9-0.5-1.3
		s-0.2-1-0.2-1.5c0-0.9,0.1-1.6,0.4-2.3s0.6-1.3,1.1-1.8s1-0.9,1.6-1.1c0.6-0.3,1.3-0.4,2-0.4c0.9,0,1.6,0.2,2.3,0.5
		c0.7,0.3,1.2,0.8,1.6,1.3c0.4,0.5,0.5,1,0.5,1.4c0,0.2-0.1,0.5-0.3,0.7c-0.2,0.2-0.4,0.3-0.6,0.3c-0.3,0-0.5-0.1-0.6-0.2
		c-0.1-0.1-0.3-0.4-0.5-0.7c-0.3-0.5-0.6-0.9-1-1.2c-0.4-0.3-0.9-0.4-1.4-0.4c-0.9,0-1.6,0.3-2.1,1c-0.5,0.7-0.8,1.6-0.8,2.9
		c0,0.8,0.1,1.5,0.4,2.1c0.2,0.6,0.6,1,1,1.2s0.9,0.4,1.5,0.4c0.6,0,1.2-0.2,1.6-0.5c0.4-0.3,0.8-0.8,1-1.4c0.1-0.3,0.2-0.5,0.3-0.7
		c0.1-0.2,0.4-0.3,0.7-0.3c0.3,0,0.5,0.1,0.7,0.3C47.2,18.8,47.3,19.1,47.3,19.3z"/>
	<path class="st0" d="M55.8,13.8h-2.4v7.8c0,0.4-0.1,0.8-0.3,1c-0.2,0.2-0.5,0.3-0.8,0.3c-0.3,0-0.6-0.1-0.8-0.3s-0.3-0.6-0.3-1
		v-7.8h-2.4c-0.4,0-0.6-0.1-0.8-0.2c-0.2-0.2-0.3-0.4-0.3-0.6c0-0.3,0.1-0.5,0.3-0.7s0.5-0.2,0.8-0.2h6.9c0.4,0,0.7,0.1,0.8,0.2
		c0.2,0.2,0.3,0.4,0.3,0.7s-0.1,0.5-0.3,0.6C56.5,13.7,56.2,13.8,55.8,13.8z"/>
	<path class="st0" d="M57.9,18.3v-5.2c0-0.4,0.1-0.8,0.3-1c0.2-0.2,0.5-0.3,0.8-0.3c0.3,0,0.6,0.1,0.8,0.3c0.2,0.2,0.3,0.5,0.3,1
		v5.3c0,0.6,0.1,1.1,0.2,1.5c0.1,0.4,0.4,0.7,0.7,0.9c0.3,0.2,0.8,0.3,1.4,0.3c0.8,0,1.5-0.2,1.8-0.7c0.4-0.5,0.5-1.1,0.5-2.1v-5.3
		c0-0.4,0.1-0.8,0.3-1s0.5-0.3,0.8-0.3c0.3,0,0.6,0.1,0.8,0.3c0.2,0.2,0.3,0.5,0.3,1v5.2c0,0.8-0.1,1.5-0.2,2.1
		c-0.2,0.6-0.5,1.1-0.9,1.5c-0.4,0.4-0.8,0.6-1.4,0.8c-0.5,0.2-1.1,0.2-1.8,0.2c-0.8,0-1.5-0.1-2.1-0.3c-0.6-0.2-1.1-0.5-1.5-0.8
		c-0.4-0.4-0.7-0.9-0.8-1.4C58,19.8,57.9,19.1,57.9,18.3z"/>
	<path class="st0" d="M71.3,21.6v-3.4l-2.6-4.1c-0.2-0.4-0.4-0.7-0.5-0.9C68.1,13,68,12.9,68,12.7c0-0.2,0.1-0.5,0.3-0.6
		c0.2-0.2,0.4-0.3,0.7-0.3c0.3,0,0.5,0.1,0.7,0.3s0.4,0.5,0.7,1l2,3.3l2-3.3c0.1-0.2,0.2-0.4,0.3-0.5s0.2-0.3,0.3-0.4
		s0.2-0.2,0.3-0.3c0.1-0.1,0.3-0.1,0.4-0.1c0.3,0,0.5,0.1,0.7,0.3c0.2,0.2,0.3,0.4,0.3,0.6c0,0.2,0,0.4-0.1,0.6s-0.3,0.5-0.5,0.8
		l-2.7,4.1v3.4c0,0.4-0.1,0.8-0.3,1c-0.2,0.2-0.5,0.3-0.8,0.3c-0.3,0-0.6-0.1-0.8-0.3C71.4,22.4,71.3,22,71.3,21.6z"/>
	<path class="st0" d="M85,13.7h-4.9v2.6h4.5c0.3,0,0.6,0.1,0.7,0.2c0.2,0.1,0.2,0.3,0.2,0.6s-0.1,0.4-0.2,0.6
		c-0.2,0.2-0.4,0.2-0.7,0.2h-4.5V21h5.1c0.3,0,0.6,0.1,0.8,0.2c0.2,0.2,0.3,0.4,0.3,0.6c0,0.3-0.1,0.5-0.3,0.6
		c-0.2,0.2-0.4,0.2-0.8,0.2h-5.9c-0.5,0-0.8-0.1-1-0.3c-0.2-0.2-0.3-0.5-0.3-1v-8.1c0-0.3,0-0.6,0.1-0.8s0.2-0.3,0.4-0.4
		c0.2-0.1,0.5-0.1,0.8-0.1H85c0.3,0,0.6,0.1,0.8,0.2s0.3,0.4,0.3,0.6c0,0.3-0.1,0.5-0.3,0.6S85.3,13.7,85,13.7z"/>
	<path class="st0" d="M90.3,13.1l4.2,6.3V13c0-0.4,0.1-0.7,0.3-0.9s0.4-0.3,0.7-0.3c0.3,0,0.6,0.1,0.7,0.3s0.3,0.5,0.3,0.9v8.4
		c0,0.9-0.4,1.4-1.2,1.4c-0.2,0-0.4,0-0.5-0.1c-0.2-0.1-0.3-0.1-0.4-0.3s-0.3-0.3-0.4-0.4c-0.1-0.2-0.2-0.3-0.4-0.5l-4.1-6.3v6.3
		c0,0.4-0.1,0.7-0.3,0.9c-0.2,0.2-0.4,0.3-0.7,0.3c-0.3,0-0.6-0.1-0.7-0.3c-0.2-0.2-0.3-0.5-0.3-0.9v-8.3c0-0.4,0-0.6,0.1-0.8
		c0.1-0.2,0.2-0.4,0.5-0.5s0.4-0.2,0.7-0.2c0.2,0,0.4,0,0.5,0.1c0.1,0.1,0.3,0.1,0.4,0.3c0.1,0.1,0.2,0.2,0.3,0.4
		C90.1,12.7,90.2,12.9,90.3,13.1z"/>
	<path class="st0" d="M103.1,22.7h-3.3c-0.5,0-0.8-0.1-1-0.3c-0.2-0.2-0.3-0.6-0.3-1v-8.1c0-0.5,0.1-0.8,0.3-1
		c0.2-0.2,0.5-0.3,1-0.3h3.5c0.5,0,1,0,1.3,0.1c0.4,0.1,0.7,0.2,1,0.4c0.3,0.2,0.5,0.3,0.7,0.6c0.2,0.2,0.3,0.5,0.4,0.8
		c0.1,0.3,0.2,0.6,0.2,0.9c0,1.1-0.5,1.9-1.6,2.4c1.4,0.4,2.1,1.3,2.1,2.6c0,0.6-0.2,1.1-0.5,1.6c-0.3,0.5-0.7,0.8-1.2,1.1
		c-0.3,0.1-0.7,0.2-1.1,0.3C104.2,22.7,103.7,22.7,103.1,22.7z M100.7,13.6v2.8h2c0.5,0,1-0.1,1.3-0.2s0.5-0.3,0.7-0.6
		c0.1-0.2,0.2-0.4,0.2-0.7c0-0.5-0.2-0.9-0.6-1.1c-0.4-0.2-1-0.3-1.8-0.3H100.7z M103,18h-2.3v3.1h2.3c1.5,0,2.2-0.5,2.2-1.6
		c0-0.5-0.2-0.9-0.6-1.2C104.3,18.1,103.7,18,103,18z"/>
	<path class="st0" d="M132.9,12.9l4.2,6.3v-6.4c0-0.4,0.1-0.7,0.3-0.9s0.4-0.3,0.7-0.3c0.3,0,0.6,0.1,0.7,0.3
		c0.2,0.2,0.3,0.5,0.3,0.9v8.4c0,0.9-0.4,1.4-1.2,1.4c-0.2,0-0.4,0-0.5-0.1c-0.2-0.1-0.3-0.1-0.4-0.3c-0.1-0.1-0.3-0.3-0.4-0.4
		c-0.1-0.2-0.2-0.3-0.4-0.5l-4.1-6.3v6.3c0,0.4-0.1,0.7-0.3,0.9s-0.4,0.3-0.7,0.3c-0.3,0-0.6-0.1-0.7-0.3c-0.2-0.2-0.3-0.5-0.3-0.9
		v-8.3c0-0.4,0-0.6,0.1-0.8c0.1-0.2,0.2-0.4,0.5-0.5c0.2-0.1,0.4-0.2,0.7-0.2c0.2,0,0.4,0,0.5,0.1c0.1,0.1,0.3,0.1,0.4,0.3
		c0.1,0.1,0.2,0.2,0.3,0.4C132.7,12.5,132.8,12.7,132.9,12.9z"/>
	<path class="st0" d="M150.9,18.1v2.1c0,0.3,0,0.5-0.1,0.7c-0.1,0.2-0.2,0.3-0.3,0.4s-0.3,0.3-0.6,0.4c-0.7,0.4-1.3,0.6-1.9,0.8
		s-1.3,0.2-2,0.2c-0.8,0-1.6-0.1-2.3-0.4c-0.7-0.3-1.3-0.6-1.7-1.1c-0.5-0.5-0.8-1.1-1.1-1.8c-0.3-0.7-0.4-1.5-0.4-2.3
		c0-0.8,0.1-1.6,0.4-2.3c0.2-0.7,0.6-1.3,1.1-1.8c0.5-0.5,1.1-0.9,1.8-1.1c0.7-0.3,1.5-0.4,2.4-0.4c0.7,0,1.4,0.1,1.9,0.3
		s1,0.4,1.4,0.7c0.3,0.3,0.6,0.6,0.8,0.9c0.2,0.3,0.3,0.6,0.3,0.9c0,0.3-0.1,0.5-0.3,0.7c-0.2,0.2-0.4,0.3-0.7,0.3
		c-0.2,0-0.3,0-0.5-0.1c-0.1-0.1-0.3-0.2-0.4-0.3c-0.3-0.4-0.5-0.7-0.7-1c-0.2-0.2-0.4-0.4-0.8-0.5s-0.7-0.2-1.2-0.2
		c-0.5,0-1,0.1-1.3,0.3c-0.4,0.2-0.7,0.4-1,0.8s-0.5,0.7-0.6,1.2c-0.1,0.5-0.2,1-0.2,1.6c0,1.3,0.3,2.2,0.9,2.9s1.4,1,2.4,1
		c0.5,0,1-0.1,1.4-0.2c0.4-0.1,0.9-0.3,1.3-0.6v-1.7h-1.7c-0.4,0-0.7-0.1-0.9-0.2c-0.2-0.1-0.3-0.3-0.3-0.6c0-0.2,0.1-0.4,0.3-0.6
		c0.2-0.2,0.4-0.2,0.7-0.2h2.5c0.3,0,0.6,0,0.8,0.1c0.2,0.1,0.4,0.2,0.5,0.4C150.9,17.5,150.9,17.8,150.9,18.1z"/>
	<path class="st0" d="M154,11.7h2.8c0.7,0,1.4,0.1,1.9,0.2c0.5,0.1,1,0.4,1.4,0.8c1.1,1,1.7,2.4,1.7,4.4c0,0.6-0.1,1.2-0.2,1.8
		s-0.3,1-0.5,1.4c-0.2,0.4-0.5,0.8-0.9,1.1c-0.3,0.3-0.6,0.5-0.9,0.6s-0.7,0.3-1.1,0.3c-0.4,0.1-0.8,0.1-1.3,0.1H154
		c-0.4,0-0.7-0.1-0.9-0.2c-0.2-0.1-0.3-0.3-0.4-0.5c-0.1-0.2-0.1-0.5-0.1-0.8v-7.9c0-0.5,0.1-0.8,0.3-1
		C153.2,11.9,153.5,11.7,154,11.7z M154.8,13.5v7.3h1.6c0.4,0,0.6,0,0.8,0c0.2,0,0.4-0.1,0.6-0.1c0.2-0.1,0.4-0.2,0.6-0.3
		c0.7-0.6,1.1-1.7,1.1-3.2c0-1.1-0.2-1.9-0.5-2.4s-0.7-0.9-1.2-1c-0.5-0.1-1-0.2-1.7-0.2H154.8z"/>
	<path class="st0" d="M169.7,21.3l-0.5-1.3h-4.4l-0.5,1.4c-0.2,0.5-0.4,0.9-0.5,1.1c-0.1,0.2-0.4,0.3-0.7,0.3
		c-0.3,0-0.5-0.1-0.7-0.3c-0.2-0.2-0.3-0.4-0.3-0.7c0-0.1,0-0.3,0.1-0.5c0-0.2,0.1-0.4,0.2-0.7l2.7-7c0.1-0.2,0.2-0.4,0.3-0.7
		s0.2-0.5,0.4-0.7s0.3-0.3,0.5-0.5s0.5-0.2,0.8-0.2c0.3,0,0.6,0.1,0.8,0.2c0.2,0.1,0.4,0.3,0.5,0.4c0.1,0.2,0.2,0.4,0.3,0.6
		s0.2,0.5,0.3,0.8l2.8,6.9c0.2,0.5,0.3,0.9,0.3,1.2c0,0.2-0.1,0.5-0.3,0.7c-0.2,0.2-0.5,0.3-0.8,0.3c-0.2,0-0.3,0-0.4-0.1
		c-0.1-0.1-0.2-0.1-0.3-0.2c-0.1-0.1-0.2-0.3-0.3-0.5C169.8,21.6,169.7,21.4,169.7,21.3z M165.4,18.3h3.2l-1.6-4.4L165.4,18.3z"/>
</g>
<g>
	<path class="st1" d="M125.8,12.3c-0.6,0.2-0.9,0.9-0.6,1.5c0.9,2.2,0.8,4.6-0.4,6.6c-1,1.7-2.6,2.9-4.5,3.4
		c-1.9,0.5-3.9,0.2-5.6-0.8c-3.5-2.1-4.7-6.6-2.6-10.1c1.2-2,3.2-3.3,5.6-3.6c0.3,0,0.6-0.2,0.8-0.4c0.2-0.2,0.3-0.5,0.2-0.8
		c-0.1-0.6-0.7-1.1-1.3-1c-3,0.3-5.7,2.1-7.3,4.7c-1.3,2.2-1.7,4.8-1,7.3c0.6,2.5,2.2,4.6,4.4,5.9c2,1.2,4.4,1.6,6.7,1.2
		c0.2,0,0.4-0.1,0.6-0.1c2.5-0.6,4.6-2.2,5.9-4.4c1.5-2.6,1.7-5.8,0.6-8.6C127.1,12.3,126.4,12.1,125.8,12.3z"/>
	<path class="st1" d="M116.6,12.8c-0.4,0-0.8,0.4-0.8,0.9v5.7c0,0.7,0.7,1.1,1.2,0.8l4.6-2.8c0.3-0.2,0.4-0.4,0.4-0.8
		c0-0.3-0.2-0.6-0.4-0.8l-4.6-2.8C116.9,12.8,116.8,12.8,116.6,12.8z"/>
	<path class="st1" d="M123.2,8.5c-1-0.6-2.1-0.7-3.2-0.5c-0.4,0.1-0.7,0.5-0.6,0.9l0,0.1c0.1,0.4,0.5,0.6,0.9,0.5
		c0.7-0.1,1.4,0,2.1,0.4c0.6,0.4,1.1,0.9,1.3,1.6c0.2,0.4,0.5,0.6,0.9,0.5l0.1,0c0.4-0.1,0.6-0.6,0.5-1
		C124.9,10,124.2,9.1,123.2,8.5z"/>
	<path class="st1" d="M127.2,11.1L127.2,11.1c0.5-0.1,0.7-0.5,0.6-0.9c-0.5-1.6-1.6-3-3.1-3.9c-1.6-0.9-3.3-1.1-4.9-0.7
		c-0.4,0.1-0.7,0.5-0.5,0.9l0,0c0.1,0.4,0.5,0.6,0.9,0.5c1.3-0.3,2.6-0.1,3.8,0.6c1.2,0.7,2,1.8,2.4,3
		C126.5,11,126.9,11.2,127.2,11.1z"/>
	<path class="st1" d="M130.6,9.1c-0.7-2.2-2.1-4.1-4.2-5.3c-2.1-1.2-4.5-1.5-6.7-1c-0.4,0.1-0.7,0.5-0.5,0.9l0,0.1
		c0.1,0.4,0.5,0.6,0.9,0.5c1.8-0.4,3.8-0.2,5.6,0.8c1.7,1,3,2.6,3.5,4.4c0.1,0.4,0.5,0.6,0.9,0.5l0.1,0
		C130.4,10,130.7,9.5,130.6,9.1z"/>
</g>
</svg>
